          45
  -2735.00000000000       -2643.00000000000       -2610.00000000000     
  -2448.00000000000       -2408.00000000000       -2335.00000000000     
  -2312.00000000000       -2236.00000000000       -2212.00000000000     
  -2188.00000000000       -2096.00000000000       -2063.00000000000     
  -1901.00000000000       -1861.00000000000       -1788.00000000000     
  -1765.00000000000       -1689.00000000000       -1665.00000000000     
  -1641.00000000000       -1549.00000000000       -1516.00000000000     
  -1354.00000000000       -1314.00000000000       -1241.00000000000     
  -1218.00000000000       -1142.00000000000       -1118.00000000000     
  -1094.00000000000       -1002.00000000000       -969.000000000000     
  -807.000000000000       -767.000000000000       -694.000000000000     
  -671.000000000000       -595.000000000000       -571.000000000000     
  -547.000000000000       -455.000000000000       -422.000000000000     
  -260.000000000000       -220.000000000000       -147.000000000000     
  -124.000000000000       -48.0000000000000       -24.0000000000000     
  0.1500000    
  0.0000000E+00
  0.1500000    
  0.0000000E+00
  0.1500000    
  0.0000000E+00
  0.1500000    
  0.0000000E+00
  0.1500000    
  0.1500000    
  0.0000000E+00
  0.1500000    
  0.0000000E+00
  0.1500000    
  0.0000000E+00
  0.1500000    
  0.0000000E+00
  0.1500000    
  0.1500000    
  0.0000000E+00
  0.1500000    
  0.0000000E+00
  0.1500000    
  0.0000000E+00
  0.1500000    
  0.0000000E+00
  0.1500000    
  0.1500000    
  0.0000000E+00
  0.1500000    
  0.0000000E+00
  0.1500000    
  0.0000000E+00
  0.1500000    
  0.0000000E+00
  0.1500000    
  0.1500000    
  0.0000000E+00
  0.1500000    
  0.0000000E+00
  0.1500000    
  0.0000000E+00
  0.1500000    
  0.0000000E+00
  0.1500000    
  0.1500000    
       -2759  0.000000000000000E+000
  1.199999960510567E-010  9.999999939225290E-009
           5  0.100000001490116     
  0.100000001490116     
          50
          22
  0.000000000000000E+000  1.899999979571021E-008
   12.30000    
  0.000000000000000E+000
  0.303490000000000     
           1           2           1           0           0           0
           1           1           1           1           1           0
  6.530000269412994E-002
  0.124552504244521     
  4.8999998E-19
           2
  0.135000005364418       0.000000000000000E+000  0.000000000000000E+000
  0.000000000000000E+000
          46           0           0
   24.0000000000000        92.0000000000000        33.0000000000000     
   162.000000000000        40.0000000000000        73.0000000000000     
   23.0000000000000        76.0000000000000        24.0000000000000     
   24.0000000000000        92.0000000000000        33.0000000000000     
   162.000000000000        40.0000000000000        73.0000000000000     
   23.0000000000000        76.0000000000000        24.0000000000000     
   24.0000000000000        92.0000000000000        33.0000000000000     
   162.000000000000        40.0000000000000        73.0000000000000     
   23.0000000000000        76.0000000000000        24.0000000000000     
   24.0000000000000        92.0000000000000        33.0000000000000     
   162.000000000000        40.0000000000000        73.0000000000000     
   23.0000000000000        76.0000000000000        24.0000000000000     
   24.0000000000000        92.0000000000000        33.0000000000000     
   162.000000000000        40.0000000000000        73.0000000000000     
   23.0000000000000        76.0000000000000        24.0000000000000     
   24.0000000000000     
  0.000000000000000E+000  0.000000000000000E+000           1
  1.000000047497451E-003   307800005672960.     
  9.999999824516700E-015  6.999999885293207E-011  6.999999885293207E-011
   100000000376832.     
           1           0           1           0           0           0
         810          20           5
           1
           2
           3
           4
           5
           6
           7
           8
           9
          10
          11
          12
          13
          14
          15
          16
          17
          18
          19
          20
           0
           0
           0
           0
           0
           0
           0
           0
           0
           0
           0
           0
           0
           0
           0
           0
           0
           0
           0
           0
           0
           0
           0
           0
           0
           0
           0
           0
           0
           0
           0
           0
           0
           0
           0
           0
           0
           0
           0
           0
           0
           0
           0
           0
           0
           0
           0
           0
           0
           0
           0
           0
           0
           0
           0
           0
           0
           0
           0
           0
   149.0000       311.0000      1.8999999E+16   1.000000    
   696.0000       858.0000      1.8999999E+16   1.000000    
   1243.000       1405.000      1.8999999E+16   1.000000    
   1790.000       1952.000      1.8999999E+16   1.000000    
   2337.000       2499.000      1.8999999E+16   1.000000    
