          46
 24.00   0.135000005364   0.079234483965    0.1767099E+01
  0.00   0.000000000000
 92.00   0.000000000000   0.066753842454    0.1513680E+01
  0.00   0.000000000000
 33.00   0.135000005364   0.079234483965    0.1767099E+01
  0.00   0.000000000000
162.00   0.000000000000   0.066753842454    0.1513680E+01
  0.00   0.000000000000
 40.00   0.135000005364   0.079234483965    0.1767099E+01
  0.00   0.000000000000
 73.00   0.000000000000   0.066753842454    0.1513680E+01
  0.00   0.000000000000
 23.00   0.135000005364   0.079234483965    0.1767099E+01
  0.00   0.000000000000
 76.00   0.000000000000   0.066753842454    0.1513680E+01
  0.00   0.000000000000
 24.00   0.135000005364   0.079234483965    0.1767099E+01
  0.00   0.000000000000
 24.00   0.135000005364   0.079234483965    0.1767099E+01
  0.00   0.000000000000
 92.00   0.000000000000   0.066753842454    0.1513680E+01
  0.00   0.000000000000
 33.00   0.135000005364   0.079234483965    0.1767099E+01
  0.00   0.000000000000
162.00   0.000000000000   0.066753842454    0.1513680E+01
  0.00   0.000000000000
 40.00   0.135000005364   0.079234483965    0.1767099E+01
  0.00   0.000000000000
 73.00   0.000000000000   0.066753842454    0.1513680E+01
  0.00   0.000000000000
 23.00   0.135000005364   0.079234483965    0.1767099E+01
  0.00   0.000000000000
 76.00   0.000000000000   0.066753842454    0.1513680E+01
  0.00   0.000000000000
 24.00   0.135000005364   0.079234483965    0.1767099E+01
  0.00   0.000000000000
 24.00   0.135000005364   0.079234483965    0.1767099E+01
  0.00   0.000000000000
 92.00   0.000000000000   0.066753842454    0.1513680E+01
  0.00   0.000000000000
 33.00   0.135000005364   0.079234483965    0.1767099E+01
  0.00   0.000000000000
162.00   0.000000000000   0.066753842454    0.1513680E+01
  0.00   0.000000000000
 40.00   0.135000005364   0.079234483965    0.1767099E+01
  0.00   0.000000000000
 73.00   0.000000000000   0.066753842454    0.1513680E+01
  0.00   0.000000000000
 23.00   0.135000005364   0.079234483965    0.1767099E+01
  0.00   0.000000000000
 76.00   0.000000000000   0.066753842454    0.1513680E+01
  0.00   0.000000000000
 24.00   0.135000005364   0.079234483965    0.1767099E+01
  0.00   0.000000000000
 24.00   0.135000005364   0.079234483965    0.1767099E+01
  0.00   0.000000000000
 92.00   0.000000000000   0.066753842454    0.1513680E+01
  0.00   0.000000000000
 33.00   0.135000005364   0.079234483965    0.1767099E+01
  0.00   0.000000000000
162.00   0.000000000000   0.066753842454    0.1513680E+01
  0.00   0.000000000000
 40.00   0.135000005364   0.079234483965    0.1767099E+01
  0.00   0.000000000000
 73.00   0.000000000000   0.066753842454    0.1513680E+01
  0.00   0.000000000000
 23.00   0.135000005364   0.079234483965    0.1767099E+01
  0.00   0.000000000000
 76.00   0.000000000000   0.066753842454    0.1513680E+01
  0.00   0.000000000000
 24.00   0.135000005364   0.079234483965    0.1767099E+01
  0.00   0.000000000000
 24.00   0.135000005364   0.079234483965    0.1767099E+01
  0.00   0.000000000000
 92.00   0.000000000000   0.066753842454    0.1513680E+01
  0.00   0.000000000000
 33.00   0.135000005364   0.079234483965    0.1767099E+01
  0.00   0.000000000000
162.00   0.000000000000   0.066753842454    0.1513680E+01
  0.00   0.000000000000
 40.00   0.135000005364   0.079234483965    0.1767099E+01
  0.00   0.000000000000
 73.00   0.000000000000   0.066753842454    0.1513680E+01
  0.00   0.000000000000
 23.00   0.135000005364   0.079234483965    0.1767099E+01
  0.00   0.000000000000
 76.00   0.000000000000   0.066753842454    0.1513680E+01
  0.00   0.000000000000
 24.00   0.135000005364   0.079234483965    0.1767099E+01
  0.00   0.000000000000
 24.00   0.135000005364   0.079234483965    0.1767099E+01
  0.00   0.000000000000
           5
           1           0           0           0
  1.899999979571021E-008  0.000000000000000E+000
           1
  0.135000005364418     
   12.30000    
  0.000000000000000E+000
  0.303490000000000     
  6.530000269412994E-002
  0.124552504244521     
  0.000000000000000E+000  0.000000000000000E+000
           6
           5
           4
           3
           3
          20           5           0           0           0
           0
           5
   149.0000       311.0000      1.8999999E+16   1.000000    
   696.0000       858.0000      1.8999999E+16   1.000000    
   1243.000       1405.000      1.8999999E+16   1.000000    
   1790.000       1952.000      1.8999999E+16   1.000000    
   2337.000       2499.000      1.8999999E+16   1.000000    
